[
    {
       "Id":"1",
       "Date":"2020-03-23",
       "Day":"Monday",
       "Number":1,
       "Hours":[
          {
             "Time":"12:00 PM",
             "Instructor":"Gaby",
             "Music":"R&B"
          },
          {
             "Time":"1:00 PM",
             "Instructor":"Issam",
             "Music":"HipHop"
          },
          {
             "Time":"2:00 PM",
             "Instructor":"Marcos",
             "Music":"Metal"
          },
          {
             "Time":"5:00 PM",
             "Instructor":"Daniel",
             "Music":"Rave"
          }
       ]
    },
    {
       "Id":"2",
       "Date":"2020-03-24",
       "Day":"Tuesday",
       "Number":2,
       "Hours":[
          {
             "Time":"9:00 AM",
             "Instructor":"Gaby",
             "Music":"R&B"
          },
          {
             "Time":"10:00 AM",
             "Instructor":"Issam",
             "Music":"HipHop"
          },
          {
             "Time":"2:00 PM",
             "Instructor":"Marcos",
             "Music":"Metal"
          },
          {
             "Time":"5:00 PM",
             "Instructor":"Daniel",
             "Music":"Rave"
          }
       ]
    },
    {
       "Id":"3",
       "Date":"2020-03-25",
       "Day":"Wednesday",
       "Number":3,
       "Hours":[
          {
             "Time":"12:00 PM",
             "Instructor":"Gaby",
             "Music":"R&B"
          },
          {
             "Time":"1:00 PM",
             "Instructor":"Daniel",
             "Music":"HipHop"
          }
       ]
    },
    {
       "Id":"4",
       "Date":"2020-03-26",
       "Day":"Thursday",
       "Number":4,
       "Hours":[
          {
             "Time":"10:00 AM",
             "Instructor":"Ester",
             "Music":"R&B"
          },
          {
             "Time":"11:00 AM",
             "Instructor":"David",
             "Music":"HipHop"
          },
          {
             "Time":"2:00 PM",
             "Instructor":"Marcos",
             "Music":"Metal"
          },
          {
             "Time":"5:00 PM",
             "Instructor":"Antonio",
             "Music":"Rave"
          },
          {
             "Time":"6:00 PM",
             "Instructor":"Oscar",
             "Music":"R&B"
          }
       ]
    },
    {
       "Id":"5",
       "Date":"2020-03-27",
       "Day":"Friday",
       "Number":5,
       "Hours":[
          {
             "Time":"12:00 PM",
             "Instructor":"Gaby",
             "Music":"R&B"
          },
          {
             "Time":"1:00 PM",
             "Instructor":"Issam",
             "Music":"HipHop"
          },
          {
             "Time":"2:00 PM",
             "Instructor":"Marcos",
             "Music":"Metal"
          },
          {
             "Time":"5:00 PM",
             "Instructor":"Daniel",
             "Music":"Rave"
          }
       ]
    },
    {
       "Id":"6",
       "Date":"2020-03-28",
       "Day":"Saturday",
       "Number":6,
       "Hours":[
          {
             "Time":"12:00 PM",
             "Instructor":"Gaby",
             "Music":"R&B"
          },
          {
             "Time":"1:00 PM",
             "Instructor":"Issam",
             "Music":"HipHop"
          },
          {
             "Time":"2:00 PM",
             "Instructor":"Marcos",
             "Music":"Metal"
          },
          {
             "Time":"5:00 PM",
             "Instructor":"Daniel",
             "Music":"Rave"
          }
       ]
    }
 ]