<?xml version="1.0" encoding="UTF-8"?>
<svg width="32px" height="33px" viewBox="0 0 32 33" version="1.1" xmlns="http://www.w3.org/2000/svg" xmlns:xlink="http://www.w3.org/1999/xlink">
    <!-- Generator: Sketch 57 (83077) - https://sketch.com -->
    <title>icon-instagram</title>
    <desc>Created with Sketch.</desc>
    <g id="Page-1" stroke="none" stroke-width="1" fill="none" fill-rule="evenodd">
        <g id="icon-instagram" fill="#FFFFFF" fill-rule="nonzero">
            <path d="M16.128,8.128 C11.648,8.128 7.936,11.776 7.936,16.32 C7.936,20.864 11.584,24.512 16.128,24.512 C20.672,24.512 24.32,20.8 24.32,16.32 C24.32,11.84 20.608,8.128 16.128,8.128 Z M16.128,21.568 C13.248,21.568 10.88,19.2 10.88,16.32 C10.88,13.44 13.248,11.072 16.128,11.072 C19.008,11.072 21.376,13.44 21.376,16.32 C21.376,19.2 19.008,21.568 16.128,21.568 Z" id="Shape"></path>
            <circle id="Oval" cx="24.64" cy="7.936" r="1.856"></circle>
            <path d="M29.44,3.136 C27.776,1.408 25.408,0.512 22.72,0.512 L9.536,0.512 C3.968,0.512 0.256,4.224 0.256,9.792 L0.256,22.912 C0.256,25.664 1.152,28.032 2.944,29.76 C4.672,31.424 6.976,32.256 9.6,32.256 L22.656,32.256 C25.408,32.256 27.712,31.36 29.376,29.76 C31.104,28.096 32,25.728 32,22.976 L32,9.792 C32,7.104 31.104,4.8 29.44,3.136 Z M29.184,22.976 C29.184,24.96 28.48,26.56 27.328,27.648 C26.176,28.736 24.576,29.312 22.656,29.312 L9.6,29.312 C7.68,29.312 6.08,28.736 4.928,27.648 C3.776,26.496 3.2,24.896 3.2,22.912 L3.2,9.792 C3.2,7.872 3.776,6.272 4.928,5.12 C6.016,4.032 7.68,3.456 9.6,3.456 L22.784,3.456 C24.704,3.456 26.304,4.032 27.456,5.184 C28.544,6.336 29.184,7.936 29.184,9.792 L29.184,22.976 L29.184,22.976 Z" id="Shape"></path>
        </g>
    </g>
</svg>