<?xml version="1.0" encoding="UTF-8"?>
<svg width="32px" height="32px" viewBox="0 0 32 32" version="1.1" xmlns="http://www.w3.org/2000/svg" xmlns:xlink="http://www.w3.org/1999/xlink">
    <!-- Generator: Sketch 57 (83077) - https://sketch.com -->
    <title>icon-facebook</title>
    <desc>Created with Sketch.</desc>
    <g id="Page-1" stroke="none" stroke-width="1" fill="none" fill-rule="evenodd">
        <g id="icon-facebook" transform="translate(1.000000, 1.000000)" fill="#FFFFFF" fill-rule="nonzero">
            <path d="M9,0.5 C4.30557963,0.5 0.5,4.30557963 0.5,9 L0.5,21 C0.5,25.6944204 4.30557963,29.5 9,29.5 L21,29.5 C25.6944204,29.5 29.5,25.6944204 29.5,21 L29.5,9 C29.5,4.30557963 25.6944204,0.5 21,0.5 L9,0.5 Z" id="Path" stroke="#FFFFFF" stroke-width="3" fill-opacity="0"></path>
            <path d="M12.7413333,23.7034667 L16.3381333,23.7034667 L16.3381333,14.9989333 L18.7376,14.9989333 L19.0554667,11.9994667 L16.3381333,11.9994667 L16.3418667,10.4976 C16.3418667,9.7157333 16.4165333,9.296 17.5386667,9.296 L19.0384,9.296 L19.0384,6.296 L16.6384,6.296 C13.7557333,6.296 12.7413333,7.75146667 12.7413333,10.1984 L12.7413333,11.9994667 L10.9445333,11.9994667 L10.9445333,14.9994667 L12.7413333,14.9994667 L12.7413333,23.7034667 L12.7413333,23.7034667 Z" id="Path"></path>
        </g>
    </g>
</svg>